%YAML 1.1
%TAG !u! tag:unity3d.com,2011:
--- !u!1045 &1
EditorBuildSettings:
  m_ObjectHideFlags: 0
  serializedVersion: 2
  m_Scenes:
  - enabled: 0
    path: 
    guid: 00000000000000000000000000000000
  - enabled: 0
    path: 
    guid: 00000000000000000000000000000000
  - enabled: 0
    path: 
    guid: 00000000000000000000000000000000
  - enabled: 0
    path: 
    guid: 00000000000000000000000000000000
  - enabled: 0
    path: 
    guid: 00000000000000000000000000000000
  - enabled: 0
    path: 
    guid: 00000000000000000000000000000000
  - enabled: 0
    path: 
    guid: 00000000000000000000000000000000
  - enabled: 0
    path: 
    guid: 00000000000000000000000000000000
  - enabled: 0
    path: Assets/MyAssets/Scenes/KdGtestScene1.unity
    guid: 1b9ed4378e3f66c44875eaeae57b860b
  - enabled: 1
    path: Assets/MyAssets/Scenes/LevelVR.unity
    guid: a4c23022788582f4f94e5ec3804683c3
  m_configObjects: {}
