%YAML 1.1
%TAG !u! tag:unity3d.com,2011:
--- !u!114 &11400000
MonoBehaviour:
  m_ObjectHideFlags: 0
  m_CorrespondingSourceObject: {fileID: 0}
  m_PrefabInstance: {fileID: 0}
  m_PrefabAsset: {fileID: 0}
  m_GameObject: {fileID: 0}
  m_Enabled: 1
  m_EditorHideFlags: 0
  m_Script: {fileID: 11500000, guid: fc3284eace5a64d4bb516df7d7effdb9, type: 3}
  m_Name: PunSceneSettingsFile 2
  m_EditorClassIdentifier: 
  SceneSettingsListFoldoutOpen: 1
  MinViewIdPerScene:
  - sceneAsset: {fileID: 0}
    sceneName: 123
    minViewId: 47
  - sceneAsset: {fileID: 0}
    sceneName: 123
    minViewId: 1
  - sceneAsset: {fileID: 0}
    sceneName: 456
    minViewId: 1
